<?xml version="1.0" encoding="UTF-8"?>
<!DOCTYPE suite SYSTEM "http://testng.org/testng-1.0.dtd">
<suite guice-stage="DEVELOPMENT" verbose="0" name="Failed suite [Suite1]">
  <parameter name="typeDriver" value="1"/>
  <test name="Test1">
    <parameter name="typeDriver" value="1"/>
    <classes>
      <class name="Task5"/>
    </classes>
  </test> <!-- Test1 -->
</suite> <!-- Failed suite [Suite1] -->
